G04 This is an RS-274x file exported by *
G04 gerbv version 2.7.0 *
G04 More information is available about gerbv at *
G04 http://gerbv.geda-project.org/ *
G04 --End of header info--*
%MOIN*%
%FSLAX36Y36*%
%IPPOS*%
G04 --Define apertures--*
%ADD10C,0.0020*%
G04 --Start main section--*
G54D10*
G01X0885827Y-787402D02*
G01X1574803Y-787402D01*
G01X0787402Y-1240158D02*
G01X0787402Y-952756D01*
G01X1574803Y-935039D02*
G01X1919291Y-935039D01*
G01X4852362Y-787402D02*
G01X4852362Y-3582677D01*
G01X0708661Y-2007874D02*
G01X0877953Y-2007874D01*
G01X1919291Y-1131890D02*
G01X2312992Y-1131890D01*
G01X0877953Y-2007874D02*
G01X0877953Y-1240158D01*
G01X0708661Y-3582677D02*
G01X0708661Y-2007874D01*
G01X0885827Y-952756D02*
G01X0885827Y-787402D01*
G01X2312992Y-1131890D02*
G01X2312992Y-787402D01*
G01X1919291Y-935039D02*
G01X1919291Y-1131890D01*
G01X1574803Y-787402D02*
G01X1574803Y-935039D01*
G01X2312992Y-787402D02*
G01X4852362Y-787402D01*
G01X0787402Y-952756D02*
G01X0885827Y-952756D01*
G01X4852362Y-3582677D02*
G01X0708661Y-3582677D01*
G01X0877953Y-1240158D02*
G01X0787402Y-1240158D01*
M02*
