EESchema Schematic File Version 4
EELAYER 30 0
EELAYER END
$Descr A4 11693 8268
encoding utf-8
Sheet 1 1
Title ""
Date ""
Rev ""
Comp ""
Comment1 ""
Comment2 ""
Comment3 ""
Comment4 ""
$EndDescr
$Comp
L Connector:Barrel_Jack J1
U 1 1 5FC8947E
P 1500 1550
F 0 "J1" H 1557 1875 50  0000 C CNN
F 1 "Barrel_Jack" H 1557 1784 50  0000 C CNN
F 2 "Connector_BarrelJack:BarrelJack_Horizontal" H 1550 1510 50  0001 C CNN
F 3 "~" H 1550 1510 50  0001 C CNN
	1    1500 1550
	1    0    0    -1  
$EndComp
$Comp
L power:VCC #PWR0101
U 1 1 5FC8998D
P 2100 1250
F 0 "#PWR0101" H 2100 1100 50  0001 C CNN
F 1 "VCC" H 2117 1423 50  0000 C CNN
F 2 "" H 2100 1250 50  0001 C CNN
F 3 "" H 2100 1250 50  0001 C CNN
	1    2100 1250
	1    0    0    -1  
$EndComp
$Comp
L power:GND #PWR0102
U 1 1 5FC89C12
P 2050 1900
F 0 "#PWR0102" H 2050 1650 50  0001 C CNN
F 1 "GND" H 2055 1727 50  0000 C CNN
F 2 "" H 2050 1900 50  0001 C CNN
F 3 "" H 2050 1900 50  0001 C CNN
	1    2050 1900
	1    0    0    -1  
$EndComp
$Comp
L Connector_Generic:Conn_01x02 J5
U 1 1 5FC89F86
P 2800 1500
F 0 "J5" H 2950 1400 50  0000 C CNN
F 1 "Conn_01x02" H 3100 1525 50  0000 C CNN
F 2 "Connector_PinHeader_2.54mm:PinHeader_1x02_P2.54mm_Vertical" H 2800 1500 50  0001 C CNN
F 3 "~" H 2800 1500 50  0001 C CNN
	1    2800 1500
	1    0    0    1   
$EndComp
Wire Wire Line
	1800 1450 2100 1450
Wire Wire Line
	2100 1450 2100 1250
Wire Wire Line
	2050 1900 2050 1650
Wire Wire Line
	2050 1650 1800 1650
Wire Wire Line
	2600 1400 2550 1400
Wire Wire Line
	2550 1400 2550 1250
$Comp
L power:VCC #PWR0103
U 1 1 5FC8A536
P 2550 1250
F 0 "#PWR0103" H 2550 1100 50  0001 C CNN
F 1 "VCC" H 2567 1423 50  0000 C CNN
F 2 "" H 2550 1250 50  0001 C CNN
F 3 "" H 2550 1250 50  0001 C CNN
	1    2550 1250
	1    0    0    -1  
$EndComp
$Comp
L power:GND #PWR0104
U 1 1 5FC8A8C0
P 2400 2350
F 0 "#PWR0104" H 2400 2100 50  0001 C CNN
F 1 "GND" H 2405 2177 50  0000 C CNN
F 2 "" H 2400 2350 50  0001 C CNN
F 3 "" H 2400 2350 50  0001 C CNN
	1    2400 2350
	1    0    0    -1  
$EndComp
$Comp
L Connector_Generic:Conn_01x02 J6
U 1 1 5FC8B5A9
P 2800 1725
F 0 "J6" H 2925 1650 50  0000 C CNN
F 1 "Conn_01x02" H 3100 1750 50  0000 C CNN
F 2 "Connector_PinHeader_2.54mm:PinHeader_1x02_P2.54mm_Vertical" H 2800 1725 50  0001 C CNN
F 3 "~" H 2800 1725 50  0001 C CNN
	1    2800 1725
	1    0    0    1   
$EndComp
$Comp
L Connector_Generic:Conn_01x02 J7
U 1 1 5FC8B8A3
P 2800 1950
F 0 "J7" H 2925 1850 50  0000 C CNN
F 1 "Conn_01x02" H 3100 1950 50  0000 C CNN
F 2 "Connector_PinHeader_2.54mm:PinHeader_1x02_P2.54mm_Vertical" H 2800 1950 50  0001 C CNN
F 3 "~" H 2800 1950 50  0001 C CNN
	1    2800 1950
	1    0    0    1   
$EndComp
$Comp
L Connector_Generic:Conn_01x02 J8
U 1 1 5FC8BDA1
P 2800 2175
F 0 "J8" H 2950 2100 50  0000 C CNN
F 1 "Conn_01x02" H 3100 2175 50  0000 C CNN
F 2 "Connector_PinHeader_2.54mm:PinHeader_1x02_P2.54mm_Vertical" H 2800 2175 50  0001 C CNN
F 3 "~" H 2800 2175 50  0001 C CNN
	1    2800 2175
	1    0    0    1   
$EndComp
Wire Wire Line
	2550 1400 2550 1625
Wire Wire Line
	2550 1625 2600 1625
Connection ~ 2550 1400
Wire Wire Line
	2550 1625 2550 1850
Wire Wire Line
	2550 1850 2600 1850
Connection ~ 2550 1625
Wire Wire Line
	2550 1850 2550 2075
Wire Wire Line
	2550 2075 2600 2075
Connection ~ 2550 1850
Wire Wire Line
	2600 1500 2400 1500
Wire Wire Line
	2400 1500 2400 1725
Wire Wire Line
	2600 1725 2400 1725
Connection ~ 2400 1725
Wire Wire Line
	2400 1725 2400 1950
Wire Wire Line
	2600 1950 2400 1950
Connection ~ 2400 1950
Wire Wire Line
	2400 1950 2400 2175
Wire Wire Line
	2600 2175 2400 2175
Connection ~ 2400 2175
Wire Wire Line
	2400 2175 2400 2350
$Comp
L Connector:Conn_Coaxial J4
U 1 1 5FC94817
P 2725 2975
F 0 "J4" H 2825 2950 50  0000 L CNN
F 1 "Conn_Coaxial" H 2825 2859 50  0000 L CNN
F 2 "" H 2725 2975 50  0001 C CNN
F 3 " ~" H 2725 2975 50  0001 C CNN
	1    2725 2975
	1    0    0    -1  
$EndComp
$Comp
L Connector_Generic:Conn_01x02 J3
U 1 1 5FC94AE2
P 2325 3075
F 0 "J3" H 2475 3000 50  0000 C CNN
F 1 "Conn_01x02" H 2625 3075 50  0000 C CNN
F 2 "Connector_PinHeader_2.54mm:PinHeader_1x02_P2.54mm_Vertical" H 2325 3075 50  0001 C CNN
F 3 "~" H 2325 3075 50  0001 C CNN
	1    2325 3075
	-1   0    0    1   
$EndComp
Wire Wire Line
	2525 3075 2575 3075
Wire Wire Line
	2575 3075 2575 3200
Wire Wire Line
	2575 3200 2725 3200
Wire Wire Line
	2725 3200 2725 3175
$Comp
L power:GND #PWR0105
U 1 1 5FC954F0
P 2725 3225
F 0 "#PWR0105" H 2725 2975 50  0001 C CNN
F 1 "GND" H 2730 3052 50  0000 C CNN
F 2 "" H 2725 3225 50  0001 C CNN
F 3 "" H 2725 3225 50  0001 C CNN
	1    2725 3225
	1    0    0    -1  
$EndComp
Wire Wire Line
	2725 3225 2725 3200
Connection ~ 2725 3200
$Comp
L Connector:RJ45_Shielded J2
U 1 1 5FC95F17
P 1975 4475
F 0 "J2" H 2032 5142 50  0000 C CNN
F 1 "RJ45_Shielded" H 2032 5051 50  0000 C CNN
F 2 "" V 1975 4500 50  0001 C CNN
F 3 "~" V 1975 4500 50  0001 C CNN
	1    1975 4475
	1    0    0    -1  
$EndComp
$Comp
L Connector_Generic:Conn_01x08 J9
U 1 1 5FC97DA3
P 3300 4475
F 0 "J9" H 3218 3850 50  0000 C CNN
F 1 "Conn_01x08" H 3218 3941 50  0000 C CNN
F 2 "" H 3300 4475 50  0001 C CNN
F 3 "~" H 3300 4475 50  0001 C CNN
	1    3300 4475
	1    0    0    1   
$EndComp
$Comp
L power:GND #PWR0106
U 1 1 5FC98AAA
P 1975 4975
F 0 "#PWR0106" H 1975 4725 50  0001 C CNN
F 1 "GND" H 1980 4802 50  0000 C CNN
F 2 "" H 1975 4975 50  0001 C CNN
F 3 "" H 1975 4975 50  0001 C CNN
	1    1975 4975
	1    0    0    -1  
$EndComp
Wire Wire Line
	2375 4775 2900 4775
Wire Wire Line
	2900 4775 2900 4675
Wire Wire Line
	2900 4675 3100 4675
Wire Wire Line
	2375 4675 2850 4675
Wire Wire Line
	2850 4675 2850 4575
Wire Wire Line
	2850 4575 3100 4575
Wire Wire Line
	2375 4575 2775 4575
Wire Wire Line
	2775 4575 2775 4825
Wire Wire Line
	2775 4825 3025 4825
Wire Wire Line
	3025 4825 3025 4775
Wire Wire Line
	3025 4775 3100 4775
Wire Wire Line
	2375 4475 3100 4475
Wire Wire Line
	2375 4375 2775 4375
Wire Wire Line
	2775 4375 2775 4075
Wire Wire Line
	2775 4075 3100 4075
Wire Wire Line
	2375 4275 2850 4275
Wire Wire Line
	2850 4275 2850 4375
Wire Wire Line
	2850 4375 3100 4375
Wire Wire Line
	2375 4175 3100 4175
Wire Wire Line
	3100 4275 2900 4275
Wire Wire Line
	2900 4275 2900 4025
Wire Wire Line
	2900 4025 2625 4025
Wire Wire Line
	2625 4025 2625 4075
Wire Wire Line
	2625 4075 2375 4075
$Comp
L Connector:AudioJack2_Ground_Switch J10
U 1 1 5FC9DB75
P 3925 3125
F 0 "J10" H 3957 3550 50  0000 C CNN
F 1 "AudioJack2_Ground_Switch" H 3957 3459 50  0000 C CNN
F 2 "" H 3925 3325 50  0001 C CNN
F 3 "~" H 3925 3325 50  0001 C CNN
	1    3925 3125
	1    0    0    -1  
$EndComp
$Comp
L power:GND #PWR0107
U 1 1 5FC9DFFE
P 3925 3425
F 0 "#PWR0107" H 3925 3175 50  0001 C CNN
F 1 "GND" H 3930 3252 50  0000 C CNN
F 2 "" H 3925 3425 50  0001 C CNN
F 3 "" H 3925 3425 50  0001 C CNN
	1    3925 3425
	1    0    0    -1  
$EndComp
$Comp
L Connector_Generic:Conn_01x04 J12
U 1 1 5FC9E624
P 4750 3225
F 0 "J12" H 4830 3217 50  0000 L CNN
F 1 "Conn_01x04" H 4830 3126 50  0000 L CNN
F 2 "Connector_PinHeader_2.54mm:PinHeader_1x04_P2.54mm_Vertical" H 4750 3225 50  0001 C CNN
F 3 "~" H 4750 3225 50  0001 C CNN
	1    4750 3225
	1    0    0    -1  
$EndComp
Wire Wire Line
	4550 3125 4125 3125
Wire Wire Line
	4125 3025 4325 3025
Wire Wire Line
	4325 3025 4325 3225
Wire Wire Line
	4325 3225 4550 3225
Wire Wire Line
	4125 3225 4175 3225
Wire Wire Line
	4175 3225 4175 3425
Wire Wire Line
	4175 3425 4550 3425
Wire Wire Line
	4550 3325 4400 3325
Wire Wire Line
	4400 3325 4400 2925
Wire Wire Line
	4400 2925 4125 2925
$Comp
L Connector:USB_A J11
U 1 1 5FCA361E
P 4500 4400
F 0 "J11" H 4557 4867 50  0000 C CNN
F 1 "USB_A" H 4557 4776 50  0000 C CNN
F 2 "Connector_USB:USB_A_Stewart_SS-52100-001_Horizontal" H 4650 4350 50  0001 C CNN
F 3 " ~" H 4650 4350 50  0001 C CNN
	1    4500 4400
	1    0    0    -1  
$EndComp
$Comp
L Connector_Generic:Conn_01x04 J13
U 1 1 5FCA4040
P 5425 4300
F 0 "J13" H 5505 4292 50  0000 L CNN
F 1 "Conn_01x04" H 5505 4201 50  0000 L CNN
F 2 "Connector_PinHeader_2.54mm:PinHeader_1x04_P2.54mm_Vertical" H 5425 4300 50  0001 C CNN
F 3 "~" H 5425 4300 50  0001 C CNN
	1    5425 4300
	1    0    0    -1  
$EndComp
Wire Wire Line
	5225 4200 4800 4200
Wire Wire Line
	4400 4800 4400 4850
Wire Wire Line
	4400 4850 4500 4850
Wire Wire Line
	4500 4850 4500 4800
Wire Wire Line
	4500 4850 4500 4875
Connection ~ 4500 4850
$Comp
L power:GND #PWR0108
U 1 1 5FCA8958
P 4500 4875
F 0 "#PWR0108" H 4500 4625 50  0001 C CNN
F 1 "GND" H 4505 4702 50  0000 C CNN
F 2 "" H 4500 4875 50  0001 C CNN
F 3 "" H 4500 4875 50  0001 C CNN
	1    4500 4875
	1    0    0    -1  
$EndComp
Wire Wire Line
	4800 4400 5225 4400
Wire Wire Line
	5225 4300 5025 4300
Wire Wire Line
	5025 4300 5025 4500
Wire Wire Line
	5025 4500 4800 4500
Wire Wire Line
	5225 4500 5125 4500
Wire Wire Line
	5125 4500 5125 4850
Wire Wire Line
	5125 4850 4500 4850
$EndSCHEMATC
