(kicad_sch (version 20201015) (generator eeschema)

  (paper "A4")

  (lib_symbols
    (symbol "Connector_Generic:Conn_01x08" (pin_names (offset 1.016) hide) (in_bom yes) (on_board yes)
      (property "Reference" "J" (id 0) (at 0 10.16 0)
        (effects (font (size 1.27 1.27)))
      )
      (property "Value" "Conn_01x08" (id 1) (at 0 -12.7 0)
        (effects (font (size 1.27 1.27)))
      )
      (property "Footprint" "" (id 2) (at 0 0 0)
        (effects (font (size 1.27 1.27)) hide)
      )
      (property "Datasheet" "~" (id 3) (at 0 0 0)
        (effects (font (size 1.27 1.27)) hide)
      )
      (property "ki_keywords" "connector" (id 4) (at 0 0 0)
        (effects (font (size 1.27 1.27)) hide)
      )
      (property "ki_description" "Generic connector, single row, 01x08, script generated (kicad-library-utils/schlib/autogen/connector/)" (id 5) (at 0 0 0)
        (effects (font (size 1.27 1.27)) hide)
      )
      (property "ki_fp_filters" "Connector*:*_1x??_*" (id 6) (at 0 0 0)
        (effects (font (size 1.27 1.27)) hide)
      )
      (symbol "Conn_01x08_1_1"
        (rectangle (start -1.27 -4.953) (end 0 -5.207)
          (stroke (width 0.1524)) (fill (type none))
        )
        (rectangle (start -1.27 -7.493) (end 0 -7.747)
          (stroke (width 0.1524)) (fill (type none))
        )
        (rectangle (start -1.27 -10.033) (end 0 -10.287)
          (stroke (width 0.1524)) (fill (type none))
        )
        (rectangle (start -1.27 -2.413) (end 0 -2.667)
          (stroke (width 0.1524)) (fill (type none))
        )
        (rectangle (start -1.27 2.667) (end 0 2.413)
          (stroke (width 0.1524)) (fill (type none))
        )
        (rectangle (start -1.27 5.207) (end 0 4.953)
          (stroke (width 0.1524)) (fill (type none))
        )
        (rectangle (start -1.27 7.747) (end 0 7.493)
          (stroke (width 0.1524)) (fill (type none))
        )
        (rectangle (start -1.27 8.89) (end 1.27 -11.43)
          (stroke (width 0.254)) (fill (type background))
        )
        (rectangle (start -1.27 0.127) (end 0 -0.127)
          (stroke (width 0.1524)) (fill (type none))
        )
        (pin passive line (at -5.08 7.62 0) (length 3.81)
          (name "Pin_1" (effects (font (size 1.27 1.27))))
          (number "1" (effects (font (size 1.27 1.27))))
        )
        (pin passive line (at -5.08 5.08 0) (length 3.81)
          (name "Pin_2" (effects (font (size 1.27 1.27))))
          (number "2" (effects (font (size 1.27 1.27))))
        )
        (pin passive line (at -5.08 2.54 0) (length 3.81)
          (name "Pin_3" (effects (font (size 1.27 1.27))))
          (number "3" (effects (font (size 1.27 1.27))))
        )
        (pin passive line (at -5.08 0 0) (length 3.81)
          (name "Pin_4" (effects (font (size 1.27 1.27))))
          (number "4" (effects (font (size 1.27 1.27))))
        )
        (pin passive line (at -5.08 -2.54 0) (length 3.81)
          (name "Pin_5" (effects (font (size 1.27 1.27))))
          (number "5" (effects (font (size 1.27 1.27))))
        )
        (pin passive line (at -5.08 -5.08 0) (length 3.81)
          (name "Pin_6" (effects (font (size 1.27 1.27))))
          (number "6" (effects (font (size 1.27 1.27))))
        )
        (pin passive line (at -5.08 -7.62 0) (length 3.81)
          (name "Pin_7" (effects (font (size 1.27 1.27))))
          (number "7" (effects (font (size 1.27 1.27))))
        )
        (pin passive line (at -5.08 -10.16 0) (length 3.81)
          (name "Pin_8" (effects (font (size 1.27 1.27))))
          (number "8" (effects (font (size 1.27 1.27))))
        )
      )
    )
    (symbol "Connector_Generic:Conn_02x04_Odd_Even" (pin_names (offset 1.016) hide) (in_bom yes) (on_board yes)
      (property "Reference" "J" (id 0) (at 1.27 5.08 0)
        (effects (font (size 1.27 1.27)))
      )
      (property "Value" "Conn_02x04_Odd_Even" (id 1) (at 1.27 -7.62 0)
        (effects (font (size 1.27 1.27)))
      )
      (property "Footprint" "" (id 2) (at 0 0 0)
        (effects (font (size 1.27 1.27)) hide)
      )
      (property "Datasheet" "~" (id 3) (at 0 0 0)
        (effects (font (size 1.27 1.27)) hide)
      )
      (property "ki_keywords" "connector" (id 4) (at 0 0 0)
        (effects (font (size 1.27 1.27)) hide)
      )
      (property "ki_description" "Generic connector, double row, 02x04, odd/even pin numbering scheme (row 1 odd numbers, row 2 even numbers), script generated (kicad-library-utils/schlib/autogen/connector/)" (id 5) (at 0 0 0)
        (effects (font (size 1.27 1.27)) hide)
      )
      (property "ki_fp_filters" "Connector*:*_2x??_*" (id 6) (at 0 0 0)
        (effects (font (size 1.27 1.27)) hide)
      )
      (symbol "Conn_02x04_Odd_Even_1_1"
        (rectangle (start -1.27 -4.953) (end 0 -5.207)
          (stroke (width 0.1524)) (fill (type none))
        )
        (rectangle (start -1.27 -2.413) (end 0 -2.667)
          (stroke (width 0.1524)) (fill (type none))
        )
        (rectangle (start -1.27 2.667) (end 0 2.413)
          (stroke (width 0.1524)) (fill (type none))
        )
        (rectangle (start -1.27 3.81) (end 3.81 -6.35)
          (stroke (width 0.254)) (fill (type background))
        )
        (rectangle (start -1.27 0.127) (end 0 -0.127)
          (stroke (width 0.1524)) (fill (type none))
        )
        (rectangle (start 3.81 -4.953) (end 2.54 -5.207)
          (stroke (width 0.1524)) (fill (type none))
        )
        (rectangle (start 3.81 -2.413) (end 2.54 -2.667)
          (stroke (width 0.1524)) (fill (type none))
        )
        (rectangle (start 3.81 2.667) (end 2.54 2.413)
          (stroke (width 0.1524)) (fill (type none))
        )
        (rectangle (start 3.81 0.127) (end 2.54 -0.127)
          (stroke (width 0.1524)) (fill (type none))
        )
        (pin passive line (at -5.08 2.54 0) (length 3.81)
          (name "Pin_1" (effects (font (size 1.27 1.27))))
          (number "1" (effects (font (size 1.27 1.27))))
        )
        (pin passive line (at 7.62 2.54 180) (length 3.81)
          (name "Pin_2" (effects (font (size 1.27 1.27))))
          (number "2" (effects (font (size 1.27 1.27))))
        )
        (pin passive line (at -5.08 0 0) (length 3.81)
          (name "Pin_3" (effects (font (size 1.27 1.27))))
          (number "3" (effects (font (size 1.27 1.27))))
        )
        (pin passive line (at 7.62 0 180) (length 3.81)
          (name "Pin_4" (effects (font (size 1.27 1.27))))
          (number "4" (effects (font (size 1.27 1.27))))
        )
        (pin passive line (at -5.08 -2.54 0) (length 3.81)
          (name "Pin_5" (effects (font (size 1.27 1.27))))
          (number "5" (effects (font (size 1.27 1.27))))
        )
        (pin passive line (at 7.62 -2.54 180) (length 3.81)
          (name "Pin_6" (effects (font (size 1.27 1.27))))
          (number "6" (effects (font (size 1.27 1.27))))
        )
        (pin passive line (at -5.08 -5.08 0) (length 3.81)
          (name "Pin_7" (effects (font (size 1.27 1.27))))
          (number "7" (effects (font (size 1.27 1.27))))
        )
        (pin passive line (at 7.62 -5.08 180) (length 3.81)
          (name "Pin_8" (effects (font (size 1.27 1.27))))
          (number "8" (effects (font (size 1.27 1.27))))
        )
      )
    )
  )


  (no_connect (at 60.325 62.23))
  (no_connect (at 90.805 55.88))

  (wire (pts (xy 60.325 46.99) (xy 67.31 46.99))
    (stroke (width 0) (type solid) (color 0 0 0 0))
  )
  (wire (pts (xy 60.325 49.53) (xy 67.945 49.53))
    (stroke (width 0) (type solid) (color 0 0 0 0))
  )
  (wire (pts (xy 60.325 52.07) (xy 67.31 52.07))
    (stroke (width 0) (type solid) (color 0 0 0 0))
  )
  (wire (pts (xy 60.325 54.61) (xy 70.485 54.61))
    (stroke (width 0) (type solid) (color 0 0 0 0))
  )
  (wire (pts (xy 60.325 57.15) (xy 67.31 57.15))
    (stroke (width 0) (type solid) (color 0 0 0 0))
  )
  (wire (pts (xy 60.325 59.69) (xy 73.025 59.69))
    (stroke (width 0) (type solid) (color 0 0 0 0))
  )
  (wire (pts (xy 67.945 49.53) (xy 67.945 50.8))
    (stroke (width 0) (type solid) (color 0 0 0 0))
  )
  (wire (pts (xy 67.945 50.8) (xy 78.105 50.8))
    (stroke (width 0) (type solid) (color 0 0 0 0))
  )
  (wire (pts (xy 69.215 44.45) (xy 60.325 44.45))
    (stroke (width 0) (type solid) (color 0 0 0 0))
  )
  (wire (pts (xy 69.215 48.26) (xy 69.215 44.45))
    (stroke (width 0) (type solid) (color 0 0 0 0))
  )
  (wire (pts (xy 70.485 53.34) (xy 78.105 53.34))
    (stroke (width 0) (type solid) (color 0 0 0 0))
  )
  (wire (pts (xy 70.485 54.61) (xy 70.485 53.34))
    (stroke (width 0) (type solid) (color 0 0 0 0))
  )
  (wire (pts (xy 73.025 55.88) (xy 73.025 59.69))
    (stroke (width 0) (type solid) (color 0 0 0 0))
  )
  (wire (pts (xy 78.105 48.26) (xy 69.215 48.26))
    (stroke (width 0) (type solid) (color 0 0 0 0))
  )
  (wire (pts (xy 78.105 55.88) (xy 73.025 55.88))
    (stroke (width 0) (type solid) (color 0 0 0 0))
  )
  (wire (pts (xy 90.805 48.26) (xy 97.79 48.26))
    (stroke (width 0) (type solid) (color 0 0 0 0))
  )
  (wire (pts (xy 90.805 50.8) (xy 97.79 50.8))
    (stroke (width 0) (type solid) (color 0 0 0 0))
  )
  (wire (pts (xy 90.805 53.34) (xy 97.79 53.34))
    (stroke (width 0) (type solid) (color 0 0 0 0))
  )

  (label "Pin2" (at 67.31 46.99 180)
    (effects (font (size 1.27 1.27)) (justify right bottom))
  )
  (label "Pin4" (at 67.31 52.07 180)
    (effects (font (size 1.27 1.27)) (justify right bottom))
  )
  (label "Pin6" (at 67.31 57.15 180)
    (effects (font (size 1.27 1.27)) (justify right bottom))
  )
  (label "Pin2" (at 97.79 48.26 180)
    (effects (font (size 1.27 1.27)) (justify right bottom))
  )
  (label "Pin4" (at 97.79 50.8 180)
    (effects (font (size 1.27 1.27)) (justify right bottom))
  )
  (label "Pin6" (at 97.79 53.34 180)
    (effects (font (size 1.27 1.27)) (justify right bottom))
  )

  (symbol (lib_id "Connector_Generic:Conn_02x04_Odd_Even") (at 83.185 50.8 0) (unit 1)
    (in_bom yes) (on_board yes)
    (uuid "600c570a-6a8e-4e68-aa4c-c06ccaed00ea")
    (property "Reference" "J2" (id 0) (at 84.455 41.91 0))
    (property "Value" "Conn_02x04_Odd_Even" (id 1) (at 84.455 44.45 0))
    (property "Footprint" "Connector_PinHeader_2.54mm:PinHeader_2x04_P2.54mm_Vertical" (id 2) (at 83.185 50.8 0)
      (effects (font (size 1.27 1.27)) hide)
    )
    (property "Datasheet" "~" (id 3) (at 83.185 50.8 0)
      (effects (font (size 1.27 1.27)) hide)
    )
  )

  (symbol (lib_id "Connector_Generic:Conn_01x08") (at 55.245 52.07 0) (mirror y) (unit 1)
    (in_bom yes) (on_board yes)
    (uuid "01b30681-982d-44dd-99ff-db85c8565df2")
    (property "Reference" "J1" (id 0) (at 58.42 37.465 0))
    (property "Value" "Conn_01x08" (id 1) (at 58.42 40.005 0))
    (property "Footprint" "Fujitsu:Fuji_Touchpad_P2.0" (id 2) (at 55.245 52.07 0)
      (effects (font (size 1.27 1.27)) hide)
    )
    (property "Datasheet" "~" (id 3) (at 55.245 52.07 0)
      (effects (font (size 1.27 1.27)) hide)
    )
  )

  (sheet_instances
    (path "/" (page "1"))
  )

  (symbol_instances
    (path "/01b30681-982d-44dd-99ff-db85c8565df2"
      (reference "J1") (unit 1) (value "Conn_01x08") (footprint "Fujitsu:Fuji_Touchpad_P2.0")
    )
    (path "/600c570a-6a8e-4e68-aa4c-c06ccaed00ea"
      (reference "J2") (unit 1) (value "Conn_02x04_Odd_Even") (footprint "Connector_PinHeader_2.54mm:PinHeader_2x04_P2.54mm_Vertical")
    )
  )
)
