(kicad_sch (version 20201015) (generator eeschema)

  (page 1 1)

  (paper "A4")

  (lib_symbols
    (symbol "Connector:DB9_Male" (pin_names (offset 1.016) hide) (in_bom yes) (on_board yes)
      (property "Reference" "J" (id 0) (at 0 13.97 0)
        (effects (font (size 1.27 1.27)))
      )
      (property "Value" "DB9_Male" (id 1) (at 0 -14.605 0)
        (effects (font (size 1.27 1.27)))
      )
      (property "Footprint" "" (id 2) (at 0 0 0)
        (effects (font (size 1.27 1.27)) hide)
      )
      (property "Datasheet" " ~" (id 3) (at 0 0 0)
        (effects (font (size 1.27 1.27)) hide)
      )
      (property "ki_keywords" "connector male D-SUB" (id 4) (at 0 0 0)
        (effects (font (size 1.27 1.27)) hide)
      )
      (property "ki_description" "9-pin male D-SUB connector" (id 5) (at 0 0 0)
        (effects (font (size 1.27 1.27)) hide)
      )
      (property "ki_fp_filters" "DSUB*Male*" (id 6) (at 0 0 0)
        (effects (font (size 1.27 1.27)) hide)
      )
      (symbol "DB9_Male_0_1"
        (circle (center -1.778 -10.16) (radius 0.762) (stroke (width 0)) (fill (type outline)))
        (circle (center -1.778 -5.08) (radius 0.762) (stroke (width 0)) (fill (type outline)))
        (circle (center -1.778 0) (radius 0.762) (stroke (width 0)) (fill (type outline)))
        (circle (center -1.778 5.08) (radius 0.762) (stroke (width 0)) (fill (type outline)))
        (circle (center -1.778 10.16) (radius 0.762) (stroke (width 0)) (fill (type outline)))
        (circle (center 1.27 -7.62) (radius 0.762) (stroke (width 0)) (fill (type outline)))
        (circle (center 1.27 -2.54) (radius 0.762) (stroke (width 0)) (fill (type outline)))
        (circle (center 1.27 2.54) (radius 0.762) (stroke (width 0)) (fill (type outline)))
        (circle (center 1.27 7.62) (radius 0.762) (stroke (width 0)) (fill (type outline)))
        (polyline
          (pts
            (xy -3.81 -10.16)
            (xy -2.54 -10.16)
          )
          (stroke (width 0)) (fill (type none))
        )
        (polyline
          (pts
            (xy -3.81 -7.62)
            (xy 0.508 -7.62)
          )
          (stroke (width 0)) (fill (type none))
        )
        (polyline
          (pts
            (xy -3.81 -5.08)
            (xy -2.54 -5.08)
          )
          (stroke (width 0)) (fill (type none))
        )
        (polyline
          (pts
            (xy -3.81 -2.54)
            (xy 0.508 -2.54)
          )
          (stroke (width 0)) (fill (type none))
        )
        (polyline
          (pts
            (xy -3.81 0)
            (xy -2.54 0)
          )
          (stroke (width 0)) (fill (type none))
        )
        (polyline
          (pts
            (xy -3.81 2.54)
            (xy 0.508 2.54)
          )
          (stroke (width 0)) (fill (type none))
        )
        (polyline
          (pts
            (xy -3.81 5.08)
            (xy -2.54 5.08)
          )
          (stroke (width 0)) (fill (type none))
        )
        (polyline
          (pts
            (xy -3.81 7.62)
            (xy 0.508 7.62)
          )
          (stroke (width 0)) (fill (type none))
        )
        (polyline
          (pts
            (xy -3.81 10.16)
            (xy -2.54 10.16)
          )
          (stroke (width 0)) (fill (type none))
        )
        (polyline
          (pts
            (xy -3.81 -13.335)
            (xy -3.81 13.335)
            (xy 3.81 9.525)
            (xy 3.81 -9.525)
            (xy -3.81 -13.335)
          )
          (stroke (width 0.254)) (fill (type background))
        )
      )
      (symbol "DB9_Male_1_1"
        (pin passive line (at -7.62 -10.16 0) (length 3.81)
          (name "1" (effects (font (size 1.27 1.27))))
          (number "1" (effects (font (size 1.27 1.27))))
        )
        (pin passive line (at -7.62 -5.08 0) (length 3.81)
          (name "2" (effects (font (size 1.27 1.27))))
          (number "2" (effects (font (size 1.27 1.27))))
        )
        (pin passive line (at -7.62 0 0) (length 3.81)
          (name "3" (effects (font (size 1.27 1.27))))
          (number "3" (effects (font (size 1.27 1.27))))
        )
        (pin passive line (at -7.62 5.08 0) (length 3.81)
          (name "4" (effects (font (size 1.27 1.27))))
          (number "4" (effects (font (size 1.27 1.27))))
        )
        (pin passive line (at -7.62 10.16 0) (length 3.81)
          (name "5" (effects (font (size 1.27 1.27))))
          (number "5" (effects (font (size 1.27 1.27))))
        )
        (pin passive line (at -7.62 -7.62 0) (length 3.81)
          (name "6" (effects (font (size 1.27 1.27))))
          (number "6" (effects (font (size 1.27 1.27))))
        )
        (pin passive line (at -7.62 -2.54 0) (length 3.81)
          (name "7" (effects (font (size 1.27 1.27))))
          (number "7" (effects (font (size 1.27 1.27))))
        )
        (pin passive line (at -7.62 2.54 0) (length 3.81)
          (name "8" (effects (font (size 1.27 1.27))))
          (number "8" (effects (font (size 1.27 1.27))))
        )
        (pin passive line (at -7.62 7.62 0) (length 3.81)
          (name "9" (effects (font (size 1.27 1.27))))
          (number "9" (effects (font (size 1.27 1.27))))
        )
      )
    )
    (symbol "Connector_Generic:Conn_02x05_Top_Bottom" (pin_names (offset 1.016) hide) (in_bom yes) (on_board yes)
      (property "Reference" "J" (id 0) (at 1.27 7.62 0)
        (effects (font (size 1.27 1.27)))
      )
      (property "Value" "Conn_02x05_Top_Bottom" (id 1) (at 1.27 -7.62 0)
        (effects (font (size 1.27 1.27)))
      )
      (property "Footprint" "" (id 2) (at 0 0 0)
        (effects (font (size 1.27 1.27)) hide)
      )
      (property "Datasheet" "~" (id 3) (at 0 0 0)
        (effects (font (size 1.27 1.27)) hide)
      )
      (property "ki_keywords" "connector" (id 4) (at 0 0 0)
        (effects (font (size 1.27 1.27)) hide)
      )
      (property "ki_description" "Generic connector, double row, 02x05, top/bottom pin numbering scheme (row 1: 1...pins_per_row, row2: pins_per_row+1 ... num_pins), script generated (kicad-library-utils/schlib/autogen/connector/)" (id 5) (at 0 0 0)
        (effects (font (size 1.27 1.27)) hide)
      )
      (property "ki_fp_filters" "Connector*:*_2x??_*" (id 6) (at 0 0 0)
        (effects (font (size 1.27 1.27)) hide)
      )
      (symbol "Conn_02x05_Top_Bottom_1_1"
        (rectangle (start -1.27 -4.953) (end 0 -5.207)
          (stroke (width 0.1524)) (fill (type none))
        )
        (rectangle (start -1.27 -2.413) (end 0 -2.667)
          (stroke (width 0.1524)) (fill (type none))
        )
        (rectangle (start -1.27 2.667) (end 0 2.413)
          (stroke (width 0.1524)) (fill (type none))
        )
        (rectangle (start -1.27 5.207) (end 0 4.953)
          (stroke (width 0.1524)) (fill (type none))
        )
        (rectangle (start -1.27 6.35) (end 3.81 -6.35)
          (stroke (width 0.254)) (fill (type background))
        )
        (rectangle (start -1.27 0.127) (end 0 -0.127)
          (stroke (width 0.1524)) (fill (type none))
        )
        (rectangle (start 3.81 -4.953) (end 2.54 -5.207)
          (stroke (width 0.1524)) (fill (type none))
        )
        (rectangle (start 3.81 -2.413) (end 2.54 -2.667)
          (stroke (width 0.1524)) (fill (type none))
        )
        (rectangle (start 3.81 2.667) (end 2.54 2.413)
          (stroke (width 0.1524)) (fill (type none))
        )
        (rectangle (start 3.81 5.207) (end 2.54 4.953)
          (stroke (width 0.1524)) (fill (type none))
        )
        (rectangle (start 3.81 0.127) (end 2.54 -0.127)
          (stroke (width 0.1524)) (fill (type none))
        )
        (pin passive line (at -5.08 5.08 0) (length 3.81)
          (name "Pin_1" (effects (font (size 1.27 1.27))))
          (number "1" (effects (font (size 1.27 1.27))))
        )
        (pin passive line (at 7.62 -5.08 180) (length 3.81)
          (name "Pin_10" (effects (font (size 1.27 1.27))))
          (number "10" (effects (font (size 1.27 1.27))))
        )
        (pin passive line (at -5.08 2.54 0) (length 3.81)
          (name "Pin_2" (effects (font (size 1.27 1.27))))
          (number "2" (effects (font (size 1.27 1.27))))
        )
        (pin passive line (at -5.08 0 0) (length 3.81)
          (name "Pin_3" (effects (font (size 1.27 1.27))))
          (number "3" (effects (font (size 1.27 1.27))))
        )
        (pin passive line (at -5.08 -2.54 0) (length 3.81)
          (name "Pin_4" (effects (font (size 1.27 1.27))))
          (number "4" (effects (font (size 1.27 1.27))))
        )
        (pin passive line (at -5.08 -5.08 0) (length 3.81)
          (name "Pin_5" (effects (font (size 1.27 1.27))))
          (number "5" (effects (font (size 1.27 1.27))))
        )
        (pin passive line (at 7.62 5.08 180) (length 3.81)
          (name "Pin_6" (effects (font (size 1.27 1.27))))
          (number "6" (effects (font (size 1.27 1.27))))
        )
        (pin passive line (at 7.62 2.54 180) (length 3.81)
          (name "Pin_7" (effects (font (size 1.27 1.27))))
          (number "7" (effects (font (size 1.27 1.27))))
        )
        (pin passive line (at 7.62 0 180) (length 3.81)
          (name "Pin_8" (effects (font (size 1.27 1.27))))
          (number "8" (effects (font (size 1.27 1.27))))
        )
        (pin passive line (at 7.62 -2.54 180) (length 3.81)
          (name "Pin_9" (effects (font (size 1.27 1.27))))
          (number "9" (effects (font (size 1.27 1.27))))
        )
      )
    )
    (symbol "Device:C_Small" (pin_numbers hide) (pin_names (offset 0.254) hide) (in_bom yes) (on_board yes)
      (property "Reference" "C" (id 0) (at 0.254 1.778 0)
        (effects (font (size 1.27 1.27)) (justify left))
      )
      (property "Value" "C_Small" (id 1) (at 0.254 -2.032 0)
        (effects (font (size 1.27 1.27)) (justify left))
      )
      (property "Footprint" "" (id 2) (at 0 0 0)
        (effects (font (size 1.27 1.27)) hide)
      )
      (property "Datasheet" "~" (id 3) (at 0 0 0)
        (effects (font (size 1.27 1.27)) hide)
      )
      (property "ki_keywords" "capacitor cap" (id 4) (at 0 0 0)
        (effects (font (size 1.27 1.27)) hide)
      )
      (property "ki_description" "Unpolarized capacitor, small symbol" (id 5) (at 0 0 0)
        (effects (font (size 1.27 1.27)) hide)
      )
      (property "ki_fp_filters" "C_*" (id 6) (at 0 0 0)
        (effects (font (size 1.27 1.27)) hide)
      )
      (symbol "C_Small_0_1"
        (polyline
          (pts
            (xy -1.524 -0.508)
            (xy 1.524 -0.508)
          )
          (stroke (width 0.3302)) (fill (type none))
        )
        (polyline
          (pts
            (xy -1.524 0.508)
            (xy 1.524 0.508)
          )
          (stroke (width 0.3048)) (fill (type none))
        )
      )
      (symbol "C_Small_1_1"
        (pin passive line (at 0 2.54 270) (length 2.032)
          (name "~" (effects (font (size 1.27 1.27))))
          (number "1" (effects (font (size 1.27 1.27))))
        )
        (pin passive line (at 0 -2.54 90) (length 2.032)
          (name "~" (effects (font (size 1.27 1.27))))
          (number "2" (effects (font (size 1.27 1.27))))
        )
      )
    )
    (symbol "Device:L_Small" (pin_numbers hide) (pin_names (offset 0.254) hide) (in_bom yes) (on_board yes)
      (property "Reference" "L" (id 0) (at 0.762 1.016 0)
        (effects (font (size 1.27 1.27)) (justify left))
      )
      (property "Value" "L_Small" (id 1) (at 0.762 -1.016 0)
        (effects (font (size 1.27 1.27)) (justify left))
      )
      (property "Footprint" "" (id 2) (at 0 0 0)
        (effects (font (size 1.27 1.27)) hide)
      )
      (property "Datasheet" "~" (id 3) (at 0 0 0)
        (effects (font (size 1.27 1.27)) hide)
      )
      (property "ki_keywords" "inductor choke coil reactor magnetic" (id 4) (at 0 0 0)
        (effects (font (size 1.27 1.27)) hide)
      )
      (property "ki_description" "Inductor, small symbol" (id 5) (at 0 0 0)
        (effects (font (size 1.27 1.27)) hide)
      )
      (property "ki_fp_filters" "Choke_* *Coil* Inductor_* L_*" (id 6) (at 0 0 0)
        (effects (font (size 1.27 1.27)) hide)
      )
      (symbol "L_Small_0_1"
        (arc (start 0 -2.032) (end 0 -1.016) (radius (at 0 -1.524) (length 0.508) (angles -89.9 89.9))
          (stroke (width 0)) (fill (type none))
        )
        (arc (start 0 -1.016) (end 0 0) (radius (at 0 -0.508) (length 0.508) (angles -89.9 89.9))
          (stroke (width 0)) (fill (type none))
        )
        (arc (start 0 0) (end 0 1.016) (radius (at 0 0.508) (length 0.508) (angles -89.9 89.9))
          (stroke (width 0)) (fill (type none))
        )
        (arc (start 0 1.016) (end 0 2.032) (radius (at 0 1.524) (length 0.508) (angles -89.9 89.9))
          (stroke (width 0)) (fill (type none))
        )
      )
      (symbol "L_Small_1_1"
        (pin passive line (at 0 2.54 270) (length 0.508)
          (name "~" (effects (font (size 1.27 1.27))))
          (number "1" (effects (font (size 1.27 1.27))))
        )
        (pin passive line (at 0 -2.54 90) (length 0.508)
          (name "~" (effects (font (size 1.27 1.27))))
          (number "2" (effects (font (size 1.27 1.27))))
        )
      )
    )
    (symbol "Interface_UART:MAX232" (pin_names (offset 1.016)) (in_bom yes) (on_board yes)
      (property "Reference" "U" (id 0) (at -2.54 28.575 0)
        (effects (font (size 1.27 1.27)) (justify right))
      )
      (property "Value" "MAX232" (id 1) (at -2.54 26.67 0)
        (effects (font (size 1.27 1.27)) (justify right))
      )
      (property "Footprint" "" (id 2) (at 1.27 -26.67 0)
        (effects (font (size 1.27 1.27)) (justify left) hide)
      )
      (property "Datasheet" "http://www.ti.com/lit/ds/symlink/max232.pdf" (id 3) (at 0 2.54 0)
        (effects (font (size 1.27 1.27)) hide)
      )
      (property "ki_keywords" "rs232 uart transceiver line-driver" (id 4) (at 0 0 0)
        (effects (font (size 1.27 1.27)) hide)
      )
      (property "ki_description" "Dual RS232 driver/receiver, 5V supply, 120kb/s, 0C-70C" (id 5) (at 0 0 0)
        (effects (font (size 1.27 1.27)) hide)
      )
      (property "ki_fp_filters" "SOIC*P1.27mm* DIP*W7.62mm* TSSOP*4.4x5mm*P0.65mm*" (id 6) (at 0 0 0)
        (effects (font (size 1.27 1.27)) hide)
      )
      (symbol "MAX232_0_0"
        (text "LOGIC" (at -11.43 -22.86 0)
          (effects (font (size 1.27 1.27)))
        )
        (text "RS232" (at 11.43 -22.86 0)
          (effects (font (size 1.27 1.27)))
        )
      )
      (symbol "MAX232_0_1"
        (circle (center -2.54 -17.78) (radius 0.635) (stroke (width 0.254)) (fill (type none)))
        (circle (center -2.54 -12.7) (radius 0.635) (stroke (width 0.254)) (fill (type none)))
        (circle (center 0.635 -7.62) (radius 0.635) (stroke (width 0.254)) (fill (type none)))
        (circle (center 0.635 -2.54) (radius 0.635) (stroke (width 0.254)) (fill (type none)))
        (rectangle (start -15.24 -25.4) (end 15.24 25.4)
          (stroke (width 0.254)) (fill (type background))
        )
        (polyline
          (pts
            (xy -3.81 -7.62)
            (xy -8.255 -7.62)
          )
          (stroke (width 0.254)) (fill (type none))
        )
        (polyline
          (pts
            (xy -3.81 -2.54)
            (xy -8.255 -2.54)
          )
          (stroke (width 0.254)) (fill (type none))
        )
        (polyline
          (pts
            (xy -3.175 -17.78)
            (xy -8.255 -17.78)
          )
          (stroke (width 0.254)) (fill (type none))
        )
        (polyline
          (pts
            (xy -3.175 -12.7)
            (xy -8.255 -12.7)
          )
          (stroke (width 0.254)) (fill (type none))
        )
        (polyline
          (pts
            (xy 1.27 -7.62)
            (xy 6.35 -7.62)
          )
          (stroke (width 0.254)) (fill (type none))
        )
        (polyline
          (pts
            (xy 1.27 -2.54)
            (xy 6.35 -2.54)
          )
          (stroke (width 0.254)) (fill (type none))
        )
        (polyline
          (pts
            (xy 1.905 -17.78)
            (xy 6.35 -17.78)
          )
          (stroke (width 0.254)) (fill (type none))
        )
        (polyline
          (pts
            (xy 1.905 -12.7)
            (xy 6.35 -12.7)
          )
          (stroke (width 0.254)) (fill (type none))
        )
        (polyline
          (pts
            (xy -3.81 -5.715)
            (xy -3.81 -9.525)
            (xy 0 -7.62)
            (xy -3.81 -5.715)
          )
          (stroke (width 0.254)) (fill (type none))
        )
        (polyline
          (pts
            (xy -3.81 -0.635)
            (xy -3.81 -4.445)
            (xy 0 -2.54)
            (xy -3.81 -0.635)
          )
          (stroke (width 0.254)) (fill (type none))
        )
        (polyline
          (pts
            (xy 1.905 -15.875)
            (xy 1.905 -19.685)
            (xy -1.905 -17.78)
            (xy 1.905 -15.875)
          )
          (stroke (width 0.254)) (fill (type none))
        )
        (polyline
          (pts
            (xy 1.905 -10.795)
            (xy 1.905 -14.605)
            (xy -1.905 -12.7)
            (xy 1.905 -10.795)
          )
          (stroke (width 0.254)) (fill (type none))
        )
      )
      (symbol "MAX232_1_1"
        (pin passive line (at -20.32 22.86 0) (length 5.08)
          (name "C1+" (effects (font (size 1.27 1.27))))
          (number "1" (effects (font (size 1.27 1.27))))
        )
        (pin input line (at -20.32 -7.62 0) (length 5.08)
          (name "T2IN" (effects (font (size 1.27 1.27))))
          (number "10" (effects (font (size 1.27 1.27))))
        )
        (pin input line (at -20.32 -2.54 0) (length 5.08)
          (name "T1IN" (effects (font (size 1.27 1.27))))
          (number "11" (effects (font (size 1.27 1.27))))
        )
        (pin output line (at -20.32 -12.7 0) (length 5.08)
          (name "R1OUT" (effects (font (size 1.27 1.27))))
          (number "12" (effects (font (size 1.27 1.27))))
        )
        (pin input line (at 20.32 -12.7 180) (length 5.08)
          (name "R1IN" (effects (font (size 1.27 1.27))))
          (number "13" (effects (font (size 1.27 1.27))))
        )
        (pin output line (at 20.32 -2.54 180) (length 5.08)
          (name "T1OUT" (effects (font (size 1.27 1.27))))
          (number "14" (effects (font (size 1.27 1.27))))
        )
        (pin power_in line (at 0 -30.48 90) (length 5.08)
          (name "GND" (effects (font (size 1.27 1.27))))
          (number "15" (effects (font (size 1.27 1.27))))
        )
        (pin power_in line (at 0 30.48 270) (length 5.08)
          (name "VCC" (effects (font (size 1.27 1.27))))
          (number "16" (effects (font (size 1.27 1.27))))
        )
        (pin power_out line (at 20.32 10.16 180) (length 5.08)
          (name "VS+" (effects (font (size 1.27 1.27))))
          (number "2" (effects (font (size 1.27 1.27))))
        )
        (pin passive line (at -20.32 15.24 0) (length 5.08)
          (name "C1-" (effects (font (size 1.27 1.27))))
          (number "3" (effects (font (size 1.27 1.27))))
        )
        (pin passive line (at 20.32 22.86 180) (length 5.08)
          (name "C2+" (effects (font (size 1.27 1.27))))
          (number "4" (effects (font (size 1.27 1.27))))
        )
        (pin passive line (at 20.32 15.24 180) (length 5.08)
          (name "C2-" (effects (font (size 1.27 1.27))))
          (number "5" (effects (font (size 1.27 1.27))))
        )
        (pin power_out line (at 20.32 2.54 180) (length 5.08)
          (name "VS-" (effects (font (size 1.27 1.27))))
          (number "6" (effects (font (size 1.27 1.27))))
        )
        (pin output line (at 20.32 -7.62 180) (length 5.08)
          (name "T2OUT" (effects (font (size 1.27 1.27))))
          (number "7" (effects (font (size 1.27 1.27))))
        )
        (pin input line (at 20.32 -17.78 180) (length 5.08)
          (name "R2IN" (effects (font (size 1.27 1.27))))
          (number "8" (effects (font (size 1.27 1.27))))
        )
        (pin output line (at -20.32 -17.78 0) (length 5.08)
          (name "R2OUT" (effects (font (size 1.27 1.27))))
          (number "9" (effects (font (size 1.27 1.27))))
        )
      )
    )
    (symbol "power:+5V" (power) (pin_names (offset 0)) (in_bom yes) (on_board yes)
      (property "Reference" "#PWR" (id 0) (at 0 -3.81 0)
        (effects (font (size 1.27 1.27)) hide)
      )
      (property "Value" "+5V" (id 1) (at 0 3.556 0)
        (effects (font (size 1.27 1.27)))
      )
      (property "Footprint" "" (id 2) (at 0 0 0)
        (effects (font (size 1.27 1.27)) hide)
      )
      (property "Datasheet" "" (id 3) (at 0 0 0)
        (effects (font (size 1.27 1.27)) hide)
      )
      (property "ki_keywords" "power-flag" (id 4) (at 0 0 0)
        (effects (font (size 1.27 1.27)) hide)
      )
      (property "ki_description" "Power symbol creates a global label with name \"+5V\"" (id 5) (at 0 0 0)
        (effects (font (size 1.27 1.27)) hide)
      )
      (symbol "+5V_0_1"
        (polyline
          (pts
            (xy -0.762 1.27)
            (xy 0 2.54)
          )
          (stroke (width 0)) (fill (type none))
        )
        (polyline
          (pts
            (xy 0 0)
            (xy 0 2.54)
          )
          (stroke (width 0)) (fill (type none))
        )
        (polyline
          (pts
            (xy 0 2.54)
            (xy 0.762 1.27)
          )
          (stroke (width 0)) (fill (type none))
        )
      )
      (symbol "+5V_1_1"
        (pin power_in line (at 0 0 90) (length 0) hide
          (name "+5V" (effects (font (size 1.27 1.27))))
          (number "1" (effects (font (size 1.27 1.27))))
        )
      )
    )
    (symbol "power:GND" (power) (pin_names (offset 0)) (in_bom yes) (on_board yes)
      (property "Reference" "#PWR" (id 0) (at 0 -6.35 0)
        (effects (font (size 1.27 1.27)) hide)
      )
      (property "Value" "GND" (id 1) (at 0 -3.81 0)
        (effects (font (size 1.27 1.27)))
      )
      (property "Footprint" "" (id 2) (at 0 0 0)
        (effects (font (size 1.27 1.27)) hide)
      )
      (property "Datasheet" "" (id 3) (at 0 0 0)
        (effects (font (size 1.27 1.27)) hide)
      )
      (property "ki_keywords" "power-flag" (id 4) (at 0 0 0)
        (effects (font (size 1.27 1.27)) hide)
      )
      (property "ki_description" "Power symbol creates a global label with name \"GND\" , ground" (id 5) (at 0 0 0)
        (effects (font (size 1.27 1.27)) hide)
      )
      (symbol "GND_0_1"
        (polyline
          (pts
            (xy 0 0)
            (xy 0 -1.27)
            (xy 1.27 -1.27)
            (xy 0 -2.54)
            (xy -1.27 -1.27)
            (xy 0 -1.27)
          )
          (stroke (width 0)) (fill (type none))
        )
      )
      (symbol "GND_1_1"
        (pin power_in line (at 0 0 270) (length 0) hide
          (name "GND" (effects (font (size 1.27 1.27))))
          (number "1" (effects (font (size 1.27 1.27))))
        )
      )
    )
    (symbol "power:VCC" (power) (pin_names (offset 0)) (in_bom yes) (on_board yes)
      (property "Reference" "#PWR" (id 0) (at 0 -3.81 0)
        (effects (font (size 1.27 1.27)) hide)
      )
      (property "Value" "VCC" (id 1) (at 0 3.81 0)
        (effects (font (size 1.27 1.27)))
      )
      (property "Footprint" "" (id 2) (at 0 0 0)
        (effects (font (size 1.27 1.27)) hide)
      )
      (property "Datasheet" "" (id 3) (at 0 0 0)
        (effects (font (size 1.27 1.27)) hide)
      )
      (property "ki_keywords" "power-flag" (id 4) (at 0 0 0)
        (effects (font (size 1.27 1.27)) hide)
      )
      (property "ki_description" "Power symbol creates a global label with name \"VCC\"" (id 5) (at 0 0 0)
        (effects (font (size 1.27 1.27)) hide)
      )
      (symbol "VCC_0_1"
        (polyline
          (pts
            (xy -0.762 1.27)
            (xy 0 2.54)
          )
          (stroke (width 0)) (fill (type none))
        )
        (polyline
          (pts
            (xy 0 0)
            (xy 0 2.54)
          )
          (stroke (width 0)) (fill (type none))
        )
        (polyline
          (pts
            (xy 0 2.54)
            (xy 0.762 1.27)
          )
          (stroke (width 0)) (fill (type none))
        )
      )
      (symbol "VCC_1_1"
        (pin power_in line (at 0 0 90) (length 0) hide
          (name "VCC" (effects (font (size 1.27 1.27))))
          (number "1" (effects (font (size 1.27 1.27))))
        )
      )
    )
  )


  (no_connect (at 219.075 81.28))
  (no_connect (at 219.075 66.04))
  (no_connect (at 219.075 83.82))
  (no_connect (at 219.075 68.58))

  (wire (pts (xy 100.965 68.58) (xy 100.965 80.645))
    (stroke (width 0) (type solid) (color 0 0 0 0))
  )
  (wire (pts (xy 102.87 68.58) (xy 100.965 68.58))
    (stroke (width 0) (type solid) (color 0 0 0 0))
  )
  (wire (pts (xy 115.57 68.58) (xy 116.84 68.58))
    (stroke (width 0) (type solid) (color 0 0 0 0))
  )
  (wire (pts (xy 115.57 71.12) (xy 126.365 71.12))
    (stroke (width 0) (type solid) (color 0 0 0 0))
  )
  (wire (pts (xy 115.57 78.74) (xy 130.175 78.74))
    (stroke (width 0) (type solid) (color 0 0 0 0))
  )
  (wire (pts (xy 116.84 68.58) (xy 116.84 62.865))
    (stroke (width 0) (type solid) (color 0 0 0 0))
  )
  (wire (pts (xy 121.92 38.1) (xy 121.92 39.37))
    (stroke (width 0) (type solid) (color 0 0 0 0))
  )
  (wire (pts (xy 121.92 44.45) (xy 121.92 45.72))
    (stroke (width 0) (type solid) (color 0 0 0 0))
  )
  (wire (pts (xy 121.92 45.72) (xy 130.175 45.72))
    (stroke (width 0) (type solid) (color 0 0 0 0))
  )
  (wire (pts (xy 121.92 63.5) (xy 121.92 73.66))
    (stroke (width 0) (type solid) (color 0 0 0 0))
  )
  (wire (pts (xy 121.92 73.66) (xy 115.57 73.66))
    (stroke (width 0) (type solid) (color 0 0 0 0))
  )
  (wire (pts (xy 123.825 68.58) (xy 123.825 76.2))
    (stroke (width 0) (type solid) (color 0 0 0 0))
  )
  (wire (pts (xy 123.825 76.2) (xy 115.57 76.2))
    (stroke (width 0) (type solid) (color 0 0 0 0))
  )
  (wire (pts (xy 126.365 71.12) (xy 126.365 73.66))
    (stroke (width 0) (type solid) (color 0 0 0 0))
  )
  (wire (pts (xy 126.365 73.66) (xy 130.175 73.66))
    (stroke (width 0) (type solid) (color 0 0 0 0))
  )
  (wire (pts (xy 130.175 38.1) (xy 121.92 38.1))
    (stroke (width 0) (type solid) (color 0 0 0 0))
  )
  (wire (pts (xy 130.175 63.5) (xy 121.92 63.5))
    (stroke (width 0) (type solid) (color 0 0 0 0))
  )
  (wire (pts (xy 130.175 68.58) (xy 123.825 68.58))
    (stroke (width 0) (type solid) (color 0 0 0 0))
  )
  (wire (pts (xy 170.815 38.1) (xy 171.45 38.1))
    (stroke (width 0) (type solid) (color 0 0 0 0))
  )
  (wire (pts (xy 170.815 63.5) (xy 181.61 63.5))
    (stroke (width 0) (type solid) (color 0 0 0 0))
  )
  (wire (pts (xy 171.45 38.1) (xy 171.45 39.37))
    (stroke (width 0) (type solid) (color 0 0 0 0))
  )
  (wire (pts (xy 171.45 44.45) (xy 171.45 45.72))
    (stroke (width 0) (type solid) (color 0 0 0 0))
  )
  (wire (pts (xy 171.45 45.72) (xy 170.815 45.72))
    (stroke (width 0) (type solid) (color 0 0 0 0))
  )
  (wire (pts (xy 173.355 78.74) (xy 170.815 78.74))
    (stroke (width 0) (type solid) (color 0 0 0 0))
  )
  (wire (pts (xy 173.355 83.185) (xy 173.355 78.74))
    (stroke (width 0) (type solid) (color 0 0 0 0))
  )
  (wire (pts (xy 175.895 73.66) (xy 170.815 73.66))
    (stroke (width 0) (type solid) (color 0 0 0 0))
  )
  (wire (pts (xy 175.895 78.105) (xy 175.895 73.66))
    (stroke (width 0) (type solid) (color 0 0 0 0))
  )
  (wire (pts (xy 175.895 78.105) (xy 203.2 78.105))
    (stroke (width 0) (type solid) (color 0 0 0 0))
  )
  (wire (pts (xy 178.435 68.58) (xy 170.815 68.58))
    (stroke (width 0) (type solid) (color 0 0 0 0))
  )
  (wire (pts (xy 178.435 73.025) (xy 178.435 68.58))
    (stroke (width 0) (type solid) (color 0 0 0 0))
  )
  (wire (pts (xy 178.435 73.025) (xy 203.2 73.025))
    (stroke (width 0) (type solid) (color 0 0 0 0))
  )
  (wire (pts (xy 181.61 63.5) (xy 181.61 67.945))
    (stroke (width 0) (type solid) (color 0 0 0 0))
  )
  (wire (pts (xy 181.61 67.945) (xy 203.2 67.945))
    (stroke (width 0) (type solid) (color 0 0 0 0))
  )
  (wire (pts (xy 184.15 48.26) (xy 184.15 50.8))
    (stroke (width 0) (type solid) (color 0 0 0 0))
  )
  (wire (pts (xy 184.15 50.8) (xy 170.815 50.8))
    (stroke (width 0) (type solid) (color 0 0 0 0))
  )
  (wire (pts (xy 184.15 58.42) (xy 170.815 58.42))
    (stroke (width 0) (type solid) (color 0 0 0 0))
  )
  (wire (pts (xy 184.15 59.055) (xy 184.15 58.42))
    (stroke (width 0) (type solid) (color 0 0 0 0))
  )
  (wire (pts (xy 184.15 64.135) (xy 184.15 64.77))
    (stroke (width 0) (type solid) (color 0 0 0 0))
  )
  (wire (pts (xy 203.2 83.185) (xy 173.355 83.185))
    (stroke (width 0) (type solid) (color 0 0 0 0))
  )
  (wire (pts (xy 209.55 67.945) (xy 208.28 67.945))
    (stroke (width 0) (type solid) (color 0 0 0 0))
  )
  (wire (pts (xy 209.55 67.945) (xy 209.55 71.12))
    (stroke (width 0) (type solid) (color 0 0 0 0))
  )
  (wire (pts (xy 210.82 73.025) (xy 208.28 73.025))
    (stroke (width 0) (type solid) (color 0 0 0 0))
  )
  (wire (pts (xy 210.82 73.66) (xy 210.82 73.025))
    (stroke (width 0) (type solid) (color 0 0 0 0))
  )
  (wire (pts (xy 210.82 76.2) (xy 210.82 78.105))
    (stroke (width 0) (type solid) (color 0 0 0 0))
  )
  (wire (pts (xy 210.82 78.105) (xy 208.28 78.105))
    (stroke (width 0) (type solid) (color 0 0 0 0))
  )
  (wire (pts (xy 212.725 78.74) (xy 212.725 83.185))
    (stroke (width 0) (type solid) (color 0 0 0 0))
  )
  (wire (pts (xy 212.725 83.185) (xy 208.28 83.185))
    (stroke (width 0) (type solid) (color 0 0 0 0))
  )
  (wire (pts (xy 217.17 63.5) (xy 219.075 63.5))
    (stroke (width 0) (type solid) (color 0 0 0 0))
  )
  (wire (pts (xy 217.17 85.09) (xy 217.17 63.5))
    (stroke (width 0) (type solid) (color 0 0 0 0))
  )
  (wire (pts (xy 219.075 71.12) (xy 209.55 71.12))
    (stroke (width 0) (type solid) (color 0 0 0 0))
  )
  (wire (pts (xy 219.075 73.66) (xy 210.82 73.66))
    (stroke (width 0) (type solid) (color 0 0 0 0))
  )
  (wire (pts (xy 219.075 76.2) (xy 210.82 76.2))
    (stroke (width 0) (type solid) (color 0 0 0 0))
  )
  (wire (pts (xy 219.075 78.74) (xy 212.725 78.74))
    (stroke (width 0) (type solid) (color 0 0 0 0))
  )

  (symbol (lib_id "Device:L_Small") (at 205.74 67.945 90) (unit 1)
    (in_bom yes) (on_board yes)
    (uuid "1639bb37-73be-4aa3-b157-7dfcdc990b66")
    (property "Reference" "L?" (id 0) (at 205.74 64.135 90))
    (property "Value" "?" (id 1) (at 205.74 66.04 90))
    (property "Footprint" "" (id 2) (at 205.74 67.945 0)
      (effects (font (size 1.27 1.27)) hide)
    )
    (property "Datasheet" "~" (id 3) (at 205.74 67.945 0)
      (effects (font (size 1.27 1.27)) hide)
    )
  )

  (symbol (lib_id "Device:L_Small") (at 205.74 73.025 90) (unit 1)
    (in_bom yes) (on_board yes)
    (uuid "cfee9020-6bc1-4438-9954-8a66d8e2766e")
    (property "Reference" "L?" (id 0) (at 205.74 69.215 90))
    (property "Value" "?" (id 1) (at 205.74 71.12 90))
    (property "Footprint" "" (id 2) (at 205.74 73.025 0)
      (effects (font (size 1.27 1.27)) hide)
    )
    (property "Datasheet" "~" (id 3) (at 205.74 73.025 0)
      (effects (font (size 1.27 1.27)) hide)
    )
  )

  (symbol (lib_id "Device:L_Small") (at 205.74 78.105 90) (unit 1)
    (in_bom yes) (on_board yes)
    (uuid "780abdcb-17d0-4d7f-a3d5-5814176d5794")
    (property "Reference" "L?" (id 0) (at 205.74 74.295 90))
    (property "Value" "?" (id 1) (at 205.74 76.2 90))
    (property "Footprint" "" (id 2) (at 205.74 78.105 0)
      (effects (font (size 1.27 1.27)) hide)
    )
    (property "Datasheet" "~" (id 3) (at 205.74 78.105 0)
      (effects (font (size 1.27 1.27)) hide)
    )
  )

  (symbol (lib_id "Device:L_Small") (at 205.74 83.185 90) (unit 1)
    (in_bom yes) (on_board yes)
    (uuid "cca60986-1411-4317-9094-d037a74dc48e")
    (property "Reference" "L?" (id 0) (at 205.74 79.375 90))
    (property "Value" "?" (id 1) (at 205.74 81.28 90))
    (property "Footprint" "" (id 2) (at 205.74 83.185 0)
      (effects (font (size 1.27 1.27)) hide)
    )
    (property "Datasheet" "~" (id 3) (at 205.74 83.185 0)
      (effects (font (size 1.27 1.27)) hide)
    )
  )

  (symbol (lib_id "power:+5V") (at 116.84 62.865 0) (unit 1)
    (in_bom yes) (on_board yes)
    (uuid "ade1f47d-a959-4eb8-872c-5cba630a6e8f")
    (property "Reference" "#PWR?" (id 0) (at 116.84 66.675 0)
      (effects (font (size 1.27 1.27)) hide)
    )
    (property "Value" "+5V" (id 1) (at 118.11 57.785 0))
    (property "Footprint" "" (id 2) (at 116.84 62.865 0)
      (effects (font (size 1.27 1.27)) hide)
    )
    (property "Datasheet" "" (id 3) (at 116.84 62.865 0)
      (effects (font (size 1.27 1.27)) hide)
    )
  )

  (symbol (lib_id "power:+5V") (at 150.495 30.48 0) (unit 1)
    (in_bom yes) (on_board yes)
    (uuid "27d5633e-eb99-4efd-aeaf-5f91817fdf0b")
    (property "Reference" "#PWR?" (id 0) (at 150.495 34.29 0)
      (effects (font (size 1.27 1.27)) hide)
    )
    (property "Value" "+5V" (id 1) (at 151.765 25.4 0))
    (property "Footprint" "" (id 2) (at 150.495 30.48 0)
      (effects (font (size 1.27 1.27)) hide)
    )
    (property "Datasheet" "" (id 3) (at 150.495 30.48 0)
      (effects (font (size 1.27 1.27)) hide)
    )
  )

  (symbol (lib_id "power:VCC") (at 184.15 43.18 0) (unit 1)
    (in_bom yes) (on_board yes)
    (uuid "91bb54c0-c7a4-4fdc-a338-ffbe72b5de8b")
    (property "Reference" "#PWR?" (id 0) (at 184.15 46.99 0)
      (effects (font (size 1.27 1.27)) hide)
    )
    (property "Value" "VCC" (id 1) (at 184.785 38.735 0))
    (property "Footprint" "" (id 2) (at 184.15 43.18 0)
      (effects (font (size 1.27 1.27)) hide)
    )
    (property "Datasheet" "" (id 3) (at 184.15 43.18 0)
      (effects (font (size 1.27 1.27)) hide)
    )
  )

  (symbol (lib_id "power:GND") (at 100.965 80.645 0) (unit 1)
    (in_bom yes) (on_board yes)
    (uuid "21d777b1-99c8-459d-bbd7-815683ee0d2f")
    (property "Reference" "#PWR?" (id 0) (at 100.965 86.995 0)
      (effects (font (size 1.27 1.27)) hide)
    )
    (property "Value" "GND" (id 1) (at 102.235 85.725 0))
    (property "Footprint" "" (id 2) (at 100.965 80.645 0)
      (effects (font (size 1.27 1.27)) hide)
    )
    (property "Datasheet" "" (id 3) (at 100.965 80.645 0)
      (effects (font (size 1.27 1.27)) hide)
    )
  )

  (symbol (lib_id "power:GND") (at 150.495 91.44 0) (unit 1)
    (in_bom yes) (on_board yes)
    (uuid "b1f2dad6-5e64-45fd-91eb-aaa92dfd6cdc")
    (property "Reference" "#PWR?" (id 0) (at 150.495 97.79 0)
      (effects (font (size 1.27 1.27)) hide)
    )
    (property "Value" "GND" (id 1) (at 150.495 95.25 0))
    (property "Footprint" "" (id 2) (at 150.495 91.44 0)
      (effects (font (size 1.27 1.27)) hide)
    )
    (property "Datasheet" "" (id 3) (at 150.495 91.44 0)
      (effects (font (size 1.27 1.27)) hide)
    )
  )

  (symbol (lib_id "power:GND") (at 184.15 64.77 0) (unit 1)
    (in_bom yes) (on_board yes)
    (uuid "d3b7b2ef-1009-4a81-a106-24a59b21eb60")
    (property "Reference" "#PWR?" (id 0) (at 184.15 71.12 0)
      (effects (font (size 1.27 1.27)) hide)
    )
    (property "Value" "GND" (id 1) (at 184.15 69.215 0))
    (property "Footprint" "" (id 2) (at 184.15 64.77 0)
      (effects (font (size 1.27 1.27)) hide)
    )
    (property "Datasheet" "" (id 3) (at 184.15 64.77 0)
      (effects (font (size 1.27 1.27)) hide)
    )
  )

  (symbol (lib_id "power:GND") (at 217.17 85.09 0) (unit 1)
    (in_bom yes) (on_board yes)
    (uuid "7d5b04cc-54ae-4f6d-94a0-aac4968041e5")
    (property "Reference" "#PWR?" (id 0) (at 217.17 91.44 0)
      (effects (font (size 1.27 1.27)) hide)
    )
    (property "Value" "GND" (id 1) (at 218.44 90.17 0))
    (property "Footprint" "" (id 2) (at 217.17 85.09 0)
      (effects (font (size 1.27 1.27)) hide)
    )
    (property "Datasheet" "" (id 3) (at 217.17 85.09 0)
      (effects (font (size 1.27 1.27)) hide)
    )
  )

  (symbol (lib_id "Device:C_Small") (at 121.92 41.91 0) (unit 1)
    (in_bom yes) (on_board yes)
    (uuid "10ba3b94-21fd-4e71-ba58-17c210ceec61")
    (property "Reference" "C?" (id 0) (at 125.095 40.64 0)
      (effects (font (size 1.27 1.27)) (justify left))
    )
    (property "Value" "C_Small" (id 1) (at 125.095 41.91 0)
      (effects (font (size 1.27 1.27)) (justify left))
    )
    (property "Footprint" "" (id 2) (at 121.92 41.91 0)
      (effects (font (size 1.27 1.27)) hide)
    )
    (property "Datasheet" "~" (id 3) (at 121.92 41.91 0)
      (effects (font (size 1.27 1.27)) hide)
    )
  )

  (symbol (lib_id "Device:C_Small") (at 171.45 41.91 0) (unit 1)
    (in_bom yes) (on_board yes)
    (uuid "171265c0-70f8-4a24-8360-90f3dc757173")
    (property "Reference" "C?" (id 0) (at 173.99 40.64 0)
      (effects (font (size 1.27 1.27)) (justify left))
    )
    (property "Value" "C_Small" (id 1) (at 173.99 41.91 0)
      (effects (font (size 1.27 1.27)) (justify left))
    )
    (property "Footprint" "" (id 2) (at 171.45 41.91 0)
      (effects (font (size 1.27 1.27)) hide)
    )
    (property "Datasheet" "~" (id 3) (at 171.45 41.91 0)
      (effects (font (size 1.27 1.27)) hide)
    )
  )

  (symbol (lib_id "Device:C_Small") (at 184.15 45.72 0) (unit 1)
    (in_bom yes) (on_board yes)
    (uuid "7c46c238-c487-484a-b41f-704acbc70aba")
    (property "Reference" "C?" (id 0) (at 187.325 44.45 0)
      (effects (font (size 1.27 1.27)) (justify left))
    )
    (property "Value" "C_Small" (id 1) (at 187.325 45.72 0)
      (effects (font (size 1.27 1.27)) (justify left))
    )
    (property "Footprint" "" (id 2) (at 184.15 45.72 0)
      (effects (font (size 1.27 1.27)) hide)
    )
    (property "Datasheet" "~" (id 3) (at 184.15 45.72 0)
      (effects (font (size 1.27 1.27)) hide)
    )
  )

  (symbol (lib_id "Device:C_Small") (at 184.15 61.595 0) (unit 1)
    (in_bom yes) (on_board yes)
    (uuid "6ba850ac-c066-4bb4-b4b1-5a7d6b1a3b86")
    (property "Reference" "C?" (id 0) (at 186.69 60.325 0)
      (effects (font (size 1.27 1.27)) (justify left))
    )
    (property "Value" "C_Small" (id 1) (at 186.69 61.595 0)
      (effects (font (size 1.27 1.27)) (justify left))
    )
    (property "Footprint" "" (id 2) (at 184.15 61.595 0)
      (effects (font (size 1.27 1.27)) hide)
    )
    (property "Datasheet" "~" (id 3) (at 184.15 61.595 0)
      (effects (font (size 1.27 1.27)) hide)
    )
  )

  (symbol (lib_id "Connector_Generic:Conn_02x05_Top_Bottom") (at 107.95 73.66 0) (unit 1)
    (in_bom yes) (on_board yes)
    (uuid "d8b906a0-fbaf-4b4a-9ce4-0f00288bf659")
    (property "Reference" "J?" (id 0) (at 109.855 62.23 0))
    (property "Value" "." (id 1) (at 109.855 64.77 0))
    (property "Footprint" "" (id 2) (at 107.95 73.66 0)
      (effects (font (size 1.27 1.27)) hide)
    )
    (property "Datasheet" "~" (id 3) (at 107.95 73.66 0)
      (effects (font (size 1.27 1.27)) hide)
    )
  )

  (symbol (lib_id "Connector:DB9_Male") (at 226.695 73.66 0) (unit 1)
    (in_bom yes) (on_board yes)
    (uuid "31942406-dde1-407c-9410-07bc7044bce8")
    (property "Reference" "J?" (id 0) (at 232.41 71.755 0)
      (effects (font (size 1.27 1.27)) (justify left))
    )
    (property "Value" "DB9_Male" (id 1) (at 232.41 74.295 0)
      (effects (font (size 1.27 1.27)) (justify left))
    )
    (property "Footprint" "" (id 2) (at 226.695 73.66 0)
      (effects (font (size 1.27 1.27)) hide)
    )
    (property "Datasheet" " ~" (id 3) (at 226.695 73.66 0)
      (effects (font (size 1.27 1.27)) hide)
    )
  )

  (symbol (lib_id "Interface_UART:MAX232") (at 150.495 60.96 0) (unit 1)
    (in_bom yes) (on_board yes)
    (uuid "e90688ba-a458-420c-8f5e-de090d17a9db")
    (property "Reference" "U?" (id 0) (at 136.525 31.75 0))
    (property "Value" "MAX232" (id 1) (at 138.43 33.655 0))
    (property "Footprint" "" (id 2) (at 151.765 87.63 0)
      (effects (font (size 1.27 1.27)) (justify left) hide)
    )
    (property "Datasheet" "http://www.ti.com/lit/ds/symlink/max232.pdf" (id 3) (at 150.495 58.42 0)
      (effects (font (size 1.27 1.27)) hide)
    )
  )

  (sheet_instances
    (path "/" (page "1"))
  )

  (symbol_instances
    (path "/21d777b1-99c8-459d-bbd7-815683ee0d2f"
      (reference "#PWR?") (unit 1) (value "GND") (footprint "")
    )
    (path "/27d5633e-eb99-4efd-aeaf-5f91817fdf0b"
      (reference "#PWR?") (unit 1) (value "+5V") (footprint "")
    )
    (path "/7d5b04cc-54ae-4f6d-94a0-aac4968041e5"
      (reference "#PWR?") (unit 1) (value "GND") (footprint "")
    )
    (path "/91bb54c0-c7a4-4fdc-a338-ffbe72b5de8b"
      (reference "#PWR?") (unit 1) (value "VCC") (footprint "")
    )
    (path "/ade1f47d-a959-4eb8-872c-5cba630a6e8f"
      (reference "#PWR?") (unit 1) (value "+5V") (footprint "")
    )
    (path "/b1f2dad6-5e64-45fd-91eb-aaa92dfd6cdc"
      (reference "#PWR?") (unit 1) (value "GND") (footprint "")
    )
    (path "/d3b7b2ef-1009-4a81-a106-24a59b21eb60"
      (reference "#PWR?") (unit 1) (value "GND") (footprint "")
    )
    (path "/10ba3b94-21fd-4e71-ba58-17c210ceec61"
      (reference "C?") (unit 1) (value "C_Small") (footprint "")
    )
    (path "/171265c0-70f8-4a24-8360-90f3dc757173"
      (reference "C?") (unit 1) (value "C_Small") (footprint "")
    )
    (path "/6ba850ac-c066-4bb4-b4b1-5a7d6b1a3b86"
      (reference "C?") (unit 1) (value "C_Small") (footprint "")
    )
    (path "/7c46c238-c487-484a-b41f-704acbc70aba"
      (reference "C?") (unit 1) (value "C_Small") (footprint "")
    )
    (path "/31942406-dde1-407c-9410-07bc7044bce8"
      (reference "J?") (unit 1) (value "DB9_Male") (footprint "")
    )
    (path "/d8b906a0-fbaf-4b4a-9ce4-0f00288bf659"
      (reference "J?") (unit 1) (value ".") (footprint "")
    )
    (path "/1639bb37-73be-4aa3-b157-7dfcdc990b66"
      (reference "L?") (unit 1) (value "?") (footprint "")
    )
    (path "/780abdcb-17d0-4d7f-a3d5-5814176d5794"
      (reference "L?") (unit 1) (value "?") (footprint "")
    )
    (path "/cca60986-1411-4317-9094-d037a74dc48e"
      (reference "L?") (unit 1) (value "?") (footprint "")
    )
    (path "/cfee9020-6bc1-4438-9954-8a66d8e2766e"
      (reference "L?") (unit 1) (value "?") (footprint "")
    )
    (path "/e90688ba-a458-420c-8f5e-de090d17a9db"
      (reference "U?") (unit 1) (value "MAX232") (footprint "")
    )
  )
)
